{
    "productsdata": {
      "status": "success",
      "data": {
        "data": {
          "current_page": 1,
          "data": [
            {
              "id": 1102,
              "name": "Otro carro",
              "description": "Descripción otro carro",
              "web_positioning": 0,
              "price": 12000000,
              "seen": 0,
              "negotiable_price": 0,
              "reported": null,
              "active": 1,
              "user_id": 1,
              "category_father_id": 2,
              "category_id": 13,
              "image1": "/storage/Product-image1-1631679073.jpeg",
              "image2": "/storage/Product-image2-1631679080.jpeg",
              "image3": "/storage/Product-image3-1631679083.jpeg",
              "image4": null,
              "image5": null,
              "image6": null,
              "image7": null,
              "image8": null,
              "image9": null,
              "image10": null,
              "created_at": "2021-09-07 00:59:49",
              "updated_at": "2021-09-15 04:11:23",
              "deleted_at": null
            },
            {
              "id": 1101,
              "name": "Un Carro Genial",
              "description": "Este es un carro genial",
              "web_positioning": 0,
              "price": 11000000,
              "seen": 0,
              "negotiable_price": 0,
              "reported": null,
              "active": 1,
              "user_id": 1,
              "category_father_id": 1,
              "category_id": 12,
              "image1": "/storage/Product-image1-1631679110.jpeg",
              "image2": "/storage/Product-image2-1631679104.png",
              "image3": "null",
              "image4": "null",
              "image5": "null",
              "image6": "null",
              "image7": "null",
              "image8": "null",
              "image9": "null",
              "image10": "null",
              "created_at": "2021-09-06 17:44:13",
              "updated_at": "2021-09-15 04:11:50",
              "deleted_at": null
            },
            {
              "id": 1100,
              "name": "Producto99",
              "description": "Cónsolas y videojuegos",
              "web_positioning": 0,
              "price": 10250000,
              "seen": 99,
              "negotiable_price": 0,
              "reported": null,
              "active": 1,
              "user_id": 4,
              "category_father_id": 11,
              "category_id": 22,
              "image1": null,
              "image2": null,
              "image3": null,
              "image4": null,
              "image5": null,
              "image6": null,
              "image7": null,
              "image8": null,
              "image9": null,
              "image10": "",
              "created_at": "2021-09-06 17:36:30",
              "updated_at": "2021-09-06 17:36:30",
              "deleted_at": null
            },
            {
              "id": 1099,
              "name": "Producto98",
              "description": "Cónsolas y videojuegos",
              "web_positioning": 0,
              "price": 10250000,
              "seen": 98,
              "negotiable_price": 0,
              "reported": null,
              "active": 1,
              "user_id": 4,
              "category_father_id": 11,
              "category_id": 22,
              "image1": null,
              "image2": null,
              "image3": null,
              "image4": null,
              "image5": null,
              "image6": null,
              "image7": null,
              "image8": null,
              "image9": null,
              "image10": "",
              "created_at": "2021-09-06 17:36:30",
              "updated_at": "2021-09-06 17:36:30",
              "deleted_at": null
            },
            {
              "id": 1098,
              "name": "Producto97",
              "description": "Cónsolas y videojuegos",
              "web_positioning": 0,
              "price": 10250000,
              "seen": 97,
              "negotiable_price": 0,
              "reported": null,
              "active": 1,
              "user_id": 4,
              "category_father_id": 11,
              "category_id": 22,
              "image1": null,
              "image2": null,
              "image3": null,
              "image4": null,
              "image5": null,
              "image6": null,
              "image7": null,
              "image8": null,
              "image9": null,
              "image10": "",
              "created_at": "2021-09-06 17:36:30",
              "updated_at": "2021-09-06 17:36:30",
              "deleted_at": null
            },
            {
              "id": 1097,
              "name": "Producto96",
              "description": "Cónsolas y videojuegos",
              "web_positioning": 0,
              "price": 10250000,
              "seen": 96,
              "negotiable_price": 0,
              "reported": null,
              "active": 1,
              "user_id": 4,
              "category_father_id": 11,
              "category_id": 22,
              "image1": null,
              "image2": null,
              "image3": null,
              "image4": null,
              "image5": null,
              "image6": null,
              "image7": null,
              "image8": null,
              "image9": null,
              "image10": "",
              "created_at": "2021-09-06 17:36:30",
              "updated_at": "2021-09-06 17:36:30",
              "deleted_at": null
            },
            {
              "id": 1096,
              "name": "Producto95",
              "description": "Cónsolas y videojuegos",
              "web_positioning": 0,
              "price": 10250000,
              "seen": 95,
              "negotiable_price": 0,
              "reported": null,
              "active": 1,
              "user_id": 4,
              "category_father_id": 11,
              "category_id": 22,
              "image1": null,
              "image2": null,
              "image3": null,
              "image4": null,
              "image5": null,
              "image6": null,
              "image7": null,
              "image8": null,
              "image9": null,
              "image10": "",
              "created_at": "2021-09-06 17:36:30",
              "updated_at": "2021-09-06 17:36:30",
              "deleted_at": null
            },
            {
              "id": 1095,
              "name": "Producto94",
              "description": "Cónsolas y videojuegos",
              "web_positioning": 0,
              "price": 10250000,
              "seen": 94,
              "negotiable_price": 0,
              "reported": null,
              "active": 1,
              "user_id": 4,
              "category_father_id": 11,
              "category_id": 22,
              "image1": null,
              "image2": null,
              "image3": null,
              "image4": null,
              "image5": null,
              "image6": null,
              "image7": null,
              "image8": null,
              "image9": null,
              "image10": "",
              "created_at": "2021-09-06 17:36:30",
              "updated_at": "2021-09-06 17:36:30",
              "deleted_at": null
            },
            {
              "id": 1094,
              "name": "Producto93",
              "description": "Cónsolas y videojuegos",
              "web_positioning": 0,
              "price": 10250000,
              "seen": 93,
              "negotiable_price": 0,
              "reported": null,
              "active": 1,
              "user_id": 4,
              "category_father_id": 11,
              "category_id": 22,
              "image1": null,
              "image2": null,
              "image3": null,
              "image4": null,
              "image5": null,
              "image6": null,
              "image7": null,
              "image8": null,
              "image9": null,
              "image10": "",
              "created_at": "2021-09-06 17:36:30",
              "updated_at": "2021-09-06 17:36:30",
              "deleted_at": null
            },
            {
              "id": 1093,
              "name": "Producto92",
              "description": "Cónsolas y videojuegos",
              "web_positioning": 0,
              "price": 10250000,
              "seen": 92,
              "negotiable_price": 0,
              "reported": null,
              "active": 1,
              "user_id": 4,
              "category_father_id": 11,
              "category_id": 22,
              "image1": null,
              "image2": null,
              "image3": null,
              "image4": null,
              "image5": null,
              "image6": null,
              "image7": null,
              "image8": null,
              "image9": null,
              "image10": "",
              "created_at": "2021-09-06 17:36:30",
              "updated_at": "2021-09-06 17:36:30",
              "deleted_at": null
            },
            {
              "id": 1092,
              "name": "Producto91",
              "description": "Cónsolas y videojuegos",
              "web_positioning": 0,
              "price": 10250000,
              "seen": 91,
              "negotiable_price": 0,
              "reported": null,
              "active": 1,
              "user_id": 4,
              "category_father_id": 11,
              "category_id": 22,
              "image1": null,
              "image2": null,
              "image3": null,
              "image4": null,
              "image5": null,
              "image6": null,
              "image7": null,
              "image8": null,
              "image9": null,
              "image10": "",
              "created_at": "2021-09-06 17:36:30",
              "updated_at": "2021-09-06 17:36:30",
              "deleted_at": null
            },
            {
              "id": 1091,
              "name": "Producto90",
              "description": "Cónsolas y videojuegos",
              "web_positioning": 0,
              "price": 10250000,
              "seen": 90,
              "negotiable_price": 0,
              "reported": null,
              "active": 1,
              "user_id": 4,
              "category_father_id": 11,
              "category_id": 22,
              "image1": null,
              "image2": null,
              "image3": null,
              "image4": null,
              "image5": null,
              "image6": null,
              "image7": null,
              "image8": null,
              "image9": null,
              "image10": "",
              "created_at": "2021-09-06 17:36:30",
              "updated_at": "2021-09-06 17:36:30",
              "deleted_at": null
            },
            {
              "id": 1090,
              "name": "Producto89",
              "description": "Cónsolas y videojuegos",
              "web_positioning": 0,
              "price": 10250000,
              "seen": 89,
              "negotiable_price": 0,
              "reported": null,
              "active": 1,
              "user_id": 4,
              "category_father_id": 11,
              "category_id": 22,
              "image1": null,
              "image2": null,
              "image3": null,
              "image4": null,
              "image5": null,
              "image6": null,
              "image7": null,
              "image8": null,
              "image9": null,
              "image10": "",
              "created_at": "2021-09-06 17:36:30",
              "updated_at": "2021-09-06 17:36:30",
              "deleted_at": null
            },
            {
              "id": 1089,
              "name": "Producto88",
              "description": "Cónsolas y videojuegos",
              "web_positioning": 0,
              "price": 10250000,
              "seen": 88,
              "negotiable_price": 0,
              "reported": null,
              "active": 1,
              "user_id": 4,
              "category_father_id": 11,
              "category_id": 22,
              "image1": null,
              "image2": null,
              "image3": null,
              "image4": null,
              "image5": null,
              "image6": null,
              "image7": null,
              "image8": null,
              "image9": null,
              "image10": "",
              "created_at": "2021-09-06 17:36:30",
              "updated_at": "2021-09-06 17:36:30",
              "deleted_at": null
            },
            {
              "id": 1088,
              "name": "Producto87",
              "description": "Cónsolas y videojuegos",
              "web_positioning": 0,
              "price": 10250000,
              "seen": 87,
              "negotiable_price": 0,
              "reported": null,
              "active": 1,
              "user_id": 4,
              "category_father_id": 11,
              "category_id": 22,
              "image1": null,
              "image2": null,
              "image3": null,
              "image4": null,
              "image5": null,
              "image6": null,
              "image7": null,
              "image8": null,
              "image9": null,
              "image10": "",
              "created_at": "2021-09-06 17:36:30",
              "updated_at": "2021-09-06 17:36:30",
              "deleted_at": null
            },
            {
              "id": 1087,
              "name": "Producto86",
              "description": "Cónsolas y videojuegos",
              "web_positioning": 0,
              "price": 10250000,
              "seen": 86,
              "negotiable_price": 0,
              "reported": null,
              "active": 1,
              "user_id": 4,
              "category_father_id": 11,
              "category_id": 22,
              "image1": null,
              "image2": null,
              "image3": null,
              "image4": null,
              "image5": null,
              "image6": null,
              "image7": null,
              "image8": null,
              "image9": null,
              "image10": "",
              "created_at": "2021-09-06 17:36:30",
              "updated_at": "2021-09-06 17:36:30",
              "deleted_at": null
            },
            {
              "id": 1086,
              "name": "Producto85",
              "description": "Cónsolas y videojuegos",
              "web_positioning": 0,
              "price": 10250000,
              "seen": 85,
              "negotiable_price": 0,
              "reported": null,
              "active": 1,
              "user_id": 4,
              "category_father_id": 11,
              "category_id": 22,
              "image1": null,
              "image2": null,
              "image3": null,
              "image4": null,
              "image5": null,
              "image6": null,
              "image7": null,
              "image8": null,
              "image9": null,
              "image10": "",
              "created_at": "2021-09-06 17:36:30",
              "updated_at": "2021-09-06 17:36:30",
              "deleted_at": null
            },
            {
              "id": 1085,
              "name": "Producto84",
              "description": "Cónsolas y videojuegos",
              "web_positioning": 0,
              "price": 10250000,
              "seen": 84,
              "negotiable_price": 0,
              "reported": null,
              "active": 1,
              "user_id": 4,
              "category_father_id": 11,
              "category_id": 22,
              "image1": null,
              "image2": null,
              "image3": null,
              "image4": null,
              "image5": null,
              "image6": null,
              "image7": null,
              "image8": null,
              "image9": null,
              "image10": "",
              "created_at": "2021-09-06 17:36:30",
              "updated_at": "2021-09-06 17:36:30",
              "deleted_at": null
            },
            {
              "id": 1084,
              "name": "Producto83",
              "description": "Cónsolas y videojuegos",
              "web_positioning": 0,
              "price": 10250000,
              "seen": 83,
              "negotiable_price": 0,
              "reported": null,
              "active": 1,
              "user_id": 4,
              "category_father_id": 11,
              "category_id": 22,
              "image1": null,
              "image2": null,
              "image3": null,
              "image4": null,
              "image5": null,
              "image6": null,
              "image7": null,
              "image8": null,
              "image9": null,
              "image10": "",
              "created_at": "2021-09-06 17:36:30",
              "updated_at": "2021-09-06 17:36:30",
              "deleted_at": null
            },
            {
              "id": 1083,
              "name": "Producto82",
              "description": "Cónsolas y videojuegos",
              "web_positioning": 0,
              "price": 10250000,
              "seen": 82,
              "negotiable_price": 0,
              "reported": null,
              "active": 1,
              "user_id": 4,
              "category_father_id": 11,
              "category_id": 22,
              "image1": null,
              "image2": null,
              "image3": null,
              "image4": null,
              "image5": null,
              "image6": null,
              "image7": null,
              "image8": null,
              "image9": null,
              "image10": "",
              "created_at": "2021-09-06 17:36:30",
              "updated_at": "2021-09-06 17:36:30",
              "deleted_at": null
            },
            {
              "id": 1082,
              "name": "Producto81",
              "description": "Cónsolas y videojuegos",
              "web_positioning": 0,
              "price": 10250000,
              "seen": 81,
              "negotiable_price": 0,
              "reported": null,
              "active": 1,
              "user_id": 4,
              "category_father_id": 11,
              "category_id": 22,
              "image1": null,
              "image2": null,
              "image3": null,
              "image4": null,
              "image5": null,
              "image6": null,
              "image7": null,
              "image8": null,
              "image9": null,
              "image10": "",
              "created_at": "2021-09-06 17:36:30",
              "updated_at": "2021-09-06 17:36:30",
              "deleted_at": null
            },
            {
              "id": 1081,
              "name": "Producto80",
              "description": "Cónsolas y videojuegos",
              "web_positioning": 0,
              "price": 10250000,
              "seen": 80,
              "negotiable_price": 0,
              "reported": null,
              "active": 1,
              "user_id": 4,
              "category_father_id": 11,
              "category_id": 22,
              "image1": null,
              "image2": null,
              "image3": null,
              "image4": null,
              "image5": null,
              "image6": null,
              "image7": null,
              "image8": null,
              "image9": null,
              "image10": "",
              "created_at": "2021-09-06 17:36:30",
              "updated_at": "2021-09-06 17:36:30",
              "deleted_at": null
            },
            {
              "id": 1080,
              "name": "Producto79",
              "description": "Cónsolas y videojuegos",
              "web_positioning": 0,
              "price": 10250000,
              "seen": 79,
              "negotiable_price": 0,
              "reported": null,
              "active": 1,
              "user_id": 4,
              "category_father_id": 11,
              "category_id": 22,
              "image1": null,
              "image2": null,
              "image3": null,
              "image4": null,
              "image5": null,
              "image6": null,
              "image7": null,
              "image8": null,
              "image9": null,
              "image10": "",
              "created_at": "2021-09-06 17:36:30",
              "updated_at": "2021-09-06 17:36:30",
              "deleted_at": null
            },
            {
              "id": 1079,
              "name": "Producto78",
              "description": "Cónsolas y videojuegos",
              "web_positioning": 0,
              "price": 10250000,
              "seen": 78,
              "negotiable_price": 0,
              "reported": null,
              "active": 1,
              "user_id": 4,
              "category_father_id": 11,
              "category_id": 22,
              "image1": null,
              "image2": null,
              "image3": null,
              "image4": null,
              "image5": null,
              "image6": null,
              "image7": null,
              "image8": null,
              "image9": null,
              "image10": "",
              "created_at": "2021-09-06 17:36:30",
              "updated_at": "2021-09-06 17:36:30",
              "deleted_at": null
            },
            {
              "id": 1078,
              "name": "Producto77",
              "description": "Cónsolas y videojuegos",
              "web_positioning": 0,
              "price": 10250000,
              "seen": 77,
              "negotiable_price": 0,
              "reported": null,
              "active": 1,
              "user_id": 4,
              "category_father_id": 11,
              "category_id": 22,
              "image1": null,
              "image2": null,
              "image3": null,
              "image4": null,
              "image5": null,
              "image6": null,
              "image7": null,
              "image8": null,
              "image9": null,
              "image10": "",
              "created_at": "2021-09-06 17:36:30",
              "updated_at": "2021-09-06 17:36:30",
              "deleted_at": null
            },
            {
              "id": 1077,
              "name": "Producto76",
              "description": "Cónsolas y videojuegos",
              "web_positioning": 0,
              "price": 10250000,
              "seen": 76,
              "negotiable_price": 0,
              "reported": null,
              "active": 1,
              "user_id": 4,
              "category_father_id": 11,
              "category_id": 22,
              "image1": null,
              "image2": null,
              "image3": null,
              "image4": null,
              "image5": null,
              "image6": null,
              "image7": null,
              "image8": null,
              "image9": null,
              "image10": "",
              "created_at": "2021-09-06 17:36:30",
              "updated_at": "2021-09-06 17:36:30",
              "deleted_at": null
            },
            {
              "id": 1076,
              "name": "Producto75",
              "description": "Cónsolas y videojuegos",
              "web_positioning": 0,
              "price": 10250000,
              "seen": 75,
              "negotiable_price": 0,
              "reported": null,
              "active": 1,
              "user_id": 4,
              "category_father_id": 11,
              "category_id": 22,
              "image1": null,
              "image2": null,
              "image3": null,
              "image4": null,
              "image5": null,
              "image6": null,
              "image7": null,
              "image8": null,
              "image9": null,
              "image10": "",
              "created_at": "2021-09-06 17:36:30",
              "updated_at": "2021-09-06 17:36:30",
              "deleted_at": null
            },
            {
              "id": 1075,
              "name": "Producto74",
              "description": "Cónsolas y videojuegos",
              "web_positioning": 0,
              "price": 10250000,
              "seen": 74,
              "negotiable_price": 0,
              "reported": null,
              "active": 1,
              "user_id": 4,
              "category_father_id": 11,
              "category_id": 22,
              "image1": null,
              "image2": null,
              "image3": null,
              "image4": null,
              "image5": null,
              "image6": null,
              "image7": null,
              "image8": null,
              "image9": null,
              "image10": "",
              "created_at": "2021-09-06 17:36:30",
              "updated_at": "2021-09-06 17:36:30",
              "deleted_at": null
            }
          ],
          "first_page_url": "http://localhost:9090/api/rest/products?page=1",
          "from": 1,
          "last_page": 40,
          "last_page_url": "http://localhost:9090/api/rest/products?page=40",
          "next_page_url": "http://localhost:9090/api/rest/products?page=2",
          "path": "http://localhost:9090/api/rest/products",
          "per_page": 28,
          "prev_page_url": null,
          "to": 28,
          "total": 1102
        },
        "priceMax": 12000000
      }
    }
  }